epoch,loss,val_loss
0,0.14475646946165296,0.14569160342216492
1,0.1447564634757164,0.14569158852100372
2,0.14475645456049177,0.14569157361984253
3,0.14475644348014113,0.14569158852100372
4,0.14475642386664692,0.14569155871868134
5,0.14475639024351397,0.14569151401519775
6,0.14475633267663482,0.1456914097070694
7,0.14475618404710394,0.1456911265850067
8,0.14475569078046033,0.14568999409675598
9,0.14475284402187055,0.1456807404756546
10,0.14471468418581873,0.1455111801624298
11,0.1431996896226182,0.1327999383211136
12,0.14218409843424445,0.14008525013923645
13,0.13729417400482374,0.13475348055362701
14,0.12394223113854726,0.10014933347702026
15,0.1077669760865024,0.10692544281482697
16,0.10278658855419892,0.08895807713270187
17,0.08584616460606583,0.07401251047849655
18,0.07879287042678931,0.07105670869350433
19,0.0752429497292918,0.07032622396945953
20,0.07296086949670416,0.06619923561811447
21,0.07064310817891715,0.06579355895519257
22,0.06918594935256192,0.06348570436239243
23,0.06845678694737263,0.06460583209991455
24,0.06742740002198097,0.062441129237413406
25,0.06661700304502095,0.062292907387018204
26,0.06631252296969421,0.06195203214883804
27,0.06573727733304358,0.061125922948122025
28,0.06574582817972216,0.06056663393974304
29,0.06504807653080703,0.06112444028258324
30,0.06454103561038645,0.05972534790635109
31,0.06398962845659664,0.05955575406551361
32,0.06336679252294394,0.0596497543156147
33,0.06309041622866932,0.0589776486158371
34,0.06281668087865552,0.05898972973227501
35,0.06354321883274959,0.060091566294431686
36,0.0638428438677747,0.058676645159721375
37,0.06348724332120684,0.05868713557720184
38,0.06227058598883132,0.0582161545753479
39,0.06113816294659916,0.05723036080598831
40,0.06080721503394282,0.05706535652279854
41,0.060421439890678115,0.056896720081567764
42,0.060119765436547436,0.05641096830368042
43,0.06032300861472757,0.056146301329135895
44,0.06148997872558414,0.05907967686653137
45,0.06047721627431038,0.055791936814785004
46,0.059471117284817576,0.05551322177052498
47,0.05906428071932915,0.05557473376393318
48,0.05898960316792513,0.05504177510738373
49,0.05945231166914997,0.05528534576296806
50,0.05952350238067472,0.0552508644759655
51,0.0587108955742457,0.05422131344676018
52,0.058007005188200206,0.055965252220630646
53,0.05816693018134843,0.05529198795557022
54,0.05800584512643325,0.05474347248673439
55,0.058028025918791436,0.05351606011390686
56,0.057111283047841147,0.053626324981451035
57,0.05686570990544099,0.0536714568734169
58,0.05656938060608684,0.0534525066614151
59,0.056431578201615915,0.053196296095848083
60,0.056171762987843946,0.054075248539447784
61,0.05584572070938909,0.05358882620930672
62,0.05583212365452041,0.0564597025513649
63,0.05716710442151779,0.053248804062604904
64,0.05688785357225654,0.053381673991680145
65,0.05524450381342162,0.05253932997584343
66,0.05494811506862314,0.052990756928920746
67,0.05468932714345109,0.0520673468708992
68,0.05446034357843236,0.052266523241996765
69,0.054130795101324715,0.05239894986152649
70,0.05418568629866991,0.05217231810092926
71,0.05426667098942985,0.051365453749895096
72,0.054488181653949946,0.05151807516813278
73,0.05408156182394069,0.052095383405685425
74,0.053603961331467345,0.05103133246302605
75,0.0536125773548061,0.05093789100646973
76,0.053113782603261814,0.050296057015657425
77,0.05298072239782056,0.05012232065200806
78,0.05282328347874503,0.050434309989213943
79,0.052640228890455686,0.050205569714307785
80,0.05284270631451892,0.050068121403455734
81,0.05304313317323343,0.04989618435502052
82,0.05316587012165632,0.0507209338247776
83,0.0523759868218858,0.04869269207119942
84,0.05221421223802444,0.04869077354669571
85,0.05170496613678769,0.049008917063474655
86,0.05141432035682548,0.048678699880838394
87,0.05210556822200107,0.05036291107535362
88,0.05232664850405139,0.04937082156538963
89,0.05185680830071115,0.04809028282761574
90,0.05113275256803912,0.04873870313167572
91,0.050857164315943025,0.04736362770199776
92,0.05060948377363702,0.048172853887081146
93,0.05092085681409917,0.04911394044756889
94,0.051194267299694896,0.048215609043836594
95,0.05091800645757944,0.04843777418136597
96,0.05136687967639703,0.04828152060508728
97,0.05097173001521673,0.04806272312998772
98,0.05110612056321568,0.04741637781262398
99,0.050198538085589044,0.046895939856767654
