{
  "encoder": [
    {
      "batch_input_shape": "(None, 9, 23)",
      "dtype": "float32",
      "sparse": "False",
      "name": "input_1",
      "type": "<class 'tensorflow.python.keras.engine.input_layer.InputLayer'>"
    },
    {
      "name": "gcutparam",
      "trainable": "True",
      "dtype": "float32",
      "gs": "9",
      "param1": "14",
      "param2": "9",
      "type": "<class 'grapa.layers.gcutparam'>"
    },
    {
      "name": "glm",
      "trainable": "True",
      "dtype": "float32",
      "gs": "9",
      "param": "14",
      "iterations": "1",
      "alinearity": "ListWrapper([])",
      "self_initializer": "<tensorflow.python.keras.initializers.TruncatedNormal object at 0x2b015ed88dd8>",
      "neig_initializer": "<tensorflow.python.keras.initializers.TruncatedNormal object at 0x2b015ed88dd8>",
      "learnable": "True",
      "type": "<class 'grapa.layers.glm'>"
    },
    {
      "name": "glm_1",
      "trainable": "True",
      "dtype": "float32",
      "gs": "9",
      "param": "14",
      "iterations": "1",
      "alinearity": "ListWrapper([])",
      "self_initializer": "<tensorflow.python.keras.initializers.TruncatedNormal object at 0x2b015ed88dd8>",
      "neig_initializer": "<tensorflow.python.keras.initializers.TruncatedNormal object at 0x2b015ed88dd8>",
      "learnable": "True",
      "type": "<class 'grapa.layers.glm'>"
    },
    {
      "name": "glm_2",
      "trainable": "True",
      "dtype": "float32",
      "gs": "9",
      "param": "14",
      "iterations": "1",
      "alinearity": "ListWrapper([])",
      "self_initializer": "<tensorflow.python.keras.initializers.TruncatedNormal object at 0x2b015ed88dd8>",
      "neig_initializer": "<tensorflow.python.keras.initializers.TruncatedNormal object at 0x2b015ed88dd8>",
      "learnable": "True",
      "type": "<class 'grapa.layers.glm'>"
    },
    {
      "name": "gcomreopool",
      "trainable": "True",
      "dtype": "float32",
      "gs": "9",
      "param": "14",
      "type": "<class 'grapa.layers.gcomreopool'>"
    },
    {
      "name": "gcomdiagraph",
      "trainable": "True",
      "dtype": "float32",
      "gs": "9",
      "c": "3",
      "type": "<class 'grapa.layers.gcomdiagraph'>"
    },
    {
      "name": "gcomparastract",
      "trainable": "True",
      "dtype": "float32",
      "gs": "9",
      "c": "3",
      "param": "14",
      "type": "<class 'grapa.layers.gcomparastract'>"
    },
    {
      "name": "glam",
      "trainable": "True",
      "dtype": "float32",
      "gs": "3",
      "param": "14",
      "a": "3",
      "iterations": "1",
      "alinearity": "ListWrapper([])",
      "self_initializer": "<tensorflow.python.keras.initializers.TruncatedNormal object at 0x2b015ed88dd8>",
      "neig_initializer": "<tensorflow.python.keras.initializers.TruncatedNormal object at 0x2b015ed886a0>",
      "learnable": "True",
      "type": "<class 'grapa.layers.glam'>"
    },
    {
      "name": "gcompoolmerge",
      "trainable": "True",
      "dtype": "float32",
      "gs": "3",
      "ags": "3",
      "param": "14",
      "mode": "max",
      "type": "<class 'grapa.layers.gcompoolmerge'>"
    },
    {
      "name": "gaddparam",
      "trainable": "True",
      "batch_input_shape": "(None, 3, 14)",
      "dtype": "float32",
      "gs": "3",
      "param": "14",
      "free": "3",
      "type": "<class 'gaddparam.gaddparam'>"
    },
    {
      "name": "gtopk",
      "trainable": "True",
      "batch_input_shape": "(None, 3, 17)",
      "dtype": "float32",
      "gs": "3",
      "k": "1",
      "param": "17",
      "free": "0",
      "self_interaction": "True",
      "self_interaction_const": "100.0",
      "numericalC": "10000",
      "flag": "0",
      "emptyconst": "100000000.0",
      "type": "<class 'grapa.layers.gtopk'>"
    },
    {
      "name": "glm_3",
      "trainable": "True",
      "dtype": "float32",
      "gs": "3",
      "param": "17",
      "iterations": "1",
      "alinearity": "ListWrapper([])",
      "self_initializer": "<tensorflow.python.keras.initializers.TruncatedNormal object at 0x2b015ed88dd8>",
      "neig_initializer": "<tensorflow.python.keras.initializers.TruncatedNormal object at 0x2b015ed88dd8>",
      "learnable": "True",
      "type": "<class 'grapa.layers.glm'>"
    },
    {
      "name": "ggoparam",
      "trainable": "True",
      "dtype": "float32",
      "gs": "3",
      "param": "17",
      "type": "<class 'grapa.layers.ggoparam'>"
    }
  ],
  "decoder": [
    {
      "batch_input_shape": "(None, 51)",
      "dtype": "float32",
      "sparse": "False",
      "name": "input_2",
      "type": "<class 'tensorflow.python.keras.engine.input_layer.InputLayer'>"
    },
    {
      "name": "gfromparam",
      "trainable": "True",
      "dtype": "float32",
      "gs": "3",
      "param": "17",
      "type": "<class 'grapa.layers.gfromparam'>"
    },
    {
      "name": "gcomparamcombinations",
      "trainable": "True",
      "dtype": "float32",
      "gs": "3",
      "param": "17",
      "type": "<class 'grapa.layers.gcomparamcombinations'>"
    },
    {
      "name": "gcomgraphfrom2param",
      "trainable": "True",
      "dtype": "float32",
      "gs": "3",
      "c": "3",
      "param": "17",
      "initializer": "glorot_uniform",
      "n": "2",
      "type": "<class 'grapa.layers.gcomgraphfrom2param'>"
    },
    {
      "name": "gcomfullyconnected",
      "trainable": "True",
      "dtype": "float32",
      "gs": "3",
      "param": "17",
      "type": "<class 'grapa.layers.gcomfullyconnected'>"
    },
    {
      "name": "gcomextractdiag",
      "trainable": "True",
      "dtype": "float32",
      "gs": "3",
      "c": "3",
      "type": "<class 'grapa.layers.gcomextractdiag'>"
    },
    {
      "name": "gcomdensediverge",
      "trainable": "True",
      "dtype": "float32",
      "gs": "3",
      "c": "3",
      "param": "17",
      "paramo": "17",
      "initializer": "glorot_uniform",
      "type": "<class 'grapa.layers.gcomdensediverge'>"
    },
    {
      "name": "gcomgraphlevel",
      "trainable": "True",
      "dtype": "float32",
      "gs": "3",
      "c": "3",
      "type": "<class 'grapa.layers.gcomgraphlevel'>"
    },
    {
      "name": "gcomgraphrepeat",
      "trainable": "True",
      "dtype": "float32",
      "gs": "3",
      "c": "3",
      "type": "<class 'grapa.layers.gcomgraphrepeat'>"
    },
    {
      "name": "glam_1",
      "trainable": "True",
      "dtype": "float32",
      "gs": "3",
      "param": "17",
      "a": "3",
      "iterations": "1",
      "alinearity": "ListWrapper([])",
      "self_initializer": "<tensorflow.python.keras.initializers.TruncatedNormal object at 0x2b015ed88dd8>",
      "neig_initializer": "<tensorflow.python.keras.initializers.TruncatedNormal object at 0x2b015ed886a0>",
      "learnable": "True",
      "type": "<class 'grapa.layers.glam'>"
    },
    {
      "name": "gcomgraphand2",
      "trainable": "True",
      "dtype": "float32",
      "gs": "3",
      "c": "3",
      "mode": "prod",
      "cut": "0.5",
      "c_const": "1000.0",
      "type": "<class 'grapa.layers.gcomgraphand2'>"
    },
    {
      "name": "gcomparamlevel",
      "trainable": "True",
      "dtype": "float32",
      "gs": "3",
      "c": "3",
      "param": "17",
      "type": "<class 'grapa.layers.gcomparamlevel'>"
    },
    {
      "name": "glm_4",
      "trainable": "True",
      "dtype": "float32",
      "gs": "9",
      "param": "17",
      "iterations": "1",
      "alinearity": "ListWrapper([])",
      "self_initializer": "<tensorflow.python.keras.initializers.TruncatedNormal object at 0x2b015ed88dd8>",
      "neig_initializer": "<tensorflow.python.keras.initializers.TruncatedNormal object at 0x2b015ed88dd8>",
      "learnable": "True",
      "type": "<class 'grapa.layers.glm'>"
    },
    {
      "name": "glm_5",
      "trainable": "True",
      "dtype": "float32",
      "gs": "9",
      "param": "17",
      "iterations": "1",
      "alinearity": "ListWrapper([])",
      "self_initializer": "<tensorflow.python.keras.initializers.TruncatedNormal object at 0x2b015ed88dd8>",
      "neig_initializer": "<tensorflow.python.keras.initializers.TruncatedNormal object at 0x2b015ed88dd8>",
      "learnable": "True",
      "type": "<class 'grapa.layers.glm'>"
    },
    {
      "name": "glm_6",
      "trainable": "True",
      "dtype": "float32",
      "gs": "9",
      "param": "17",
      "iterations": "1",
      "alinearity": "ListWrapper([])",
      "self_initializer": "<tensorflow.python.keras.initializers.TruncatedNormal object at 0x2b015ed88dd8>",
      "neig_initializer": "<tensorflow.python.keras.initializers.TruncatedNormal object at 0x2b015ed88dd8>",
      "learnable": "True",
      "type": "<class 'grapa.layers.glm'>"
    },
    {
      "name": "glm_7",
      "trainable": "True",
      "dtype": "float32",
      "gs": "9",
      "param": "17",
      "iterations": "1",
      "alinearity": "ListWrapper([])",
      "self_initializer": "<tensorflow.python.keras.initializers.TruncatedNormal object at 0x2b015ed88dd8>",
      "neig_initializer": "<tensorflow.python.keras.initializers.TruncatedNormal object at 0x2b015ed88dd8>",
      "learnable": "True",
      "type": "<class 'grapa.layers.glm'>"
    },
    {
      "name": "gremoveparam",
      "trainable": "True",
      "dtype": "float32",
      "inn": "17",
      "gs": "9",
      "out": "14",
      "type": "<class 'grapa.layers.gremoveparam'>"
    }
  ]
}